,region,prix/m**2
0,ALSACE,2631.6333400654353
1,AQUITAINE,3504.339576444078
2,AUVERGNE,2938.1238166211006
3,BASSE-NORMANDIE,2593.3285385932772
4,BOURGOGNE,1702.9370811950037
5,BRETAGNE,1958.7292478772333
6,CENTRE,2254.9987025999667
7,CHAMPAGNE-ARDENNE,2370.979369065723
8,CORSE,2635.4217308359734
9,FRANCHE-COMTE,1537.6378501603658
10,HAUTE-NORMANDIE,1882.2028154165534
11,ILE-DE-FRANCE,4573.646142537861
12,LANGUEDOC-ROUSSILLON,2728.522687610055
13,LIMOUSIN,1369.6308438381418
14,LORRAINE,1940.720068580565
15,MIDI-PYRENEES,2203.222576395089
16,NORD-PAS-DE-CALAIS,2089.329641157721
17,PAYS DE LA LOIRE,3471.793415939042
18,PICARDIE,3038.8599191669673
19,POITOU-CHARENTES,2901.4171966627036
20,PROVENCE-ALPES-COTE D'AZUR,3229.8729650563732
21,RHONE-ALPES,3127.6278907067494
