,region,prix/taille
0,ALSACE,75631.32603815937
1,AQUITAINE,91496.71184135164
2,AUVERGNE,74023.89756944442
3,BASSE-NORMANDIE,58478.1678768434
4,BOURGOGNE,39499.7425997426
5,BRETAGNE,52002.259326680374
6,CENTRE,54280.29779614325
7,CHAMPAGNE-ARDENNE,59995.3009893728
8,CORSE,75049.97023809524
9,FRANCHE-COMTE,39610.56187343359
10,HAUTE-NORMANDIE,52472.09919354149
11,ILE-DE-FRANCE,110297.46634860396
12,LANGUEDOC-ROUSSILLON,61103.52277235111
13,LIMOUSIN,39687.52074314574
14,LORRAINE,54000.68237604321
15,MIDI-PYRENEES,63987.06931956934
16,NORD-PAS-DE-CALAIS,56224.79322548203
17,PAYS DE LA LOIRE,84862.09370597349
18,PICARDIE,71987.63082437275
19,POITOU-CHARENTES,104693.55416420702
20,PROVENCE-ALPES-COTE D'AZUR,77628.32870586454
21,RHONE-ALPES,81936.61539106764
