,departement,prix/taille
0,AIN,80578.0987654321
1,AISNE,75545.2537722908
2,ALLIER,68818.2037037037
3,ALPES-DE-HAUTE-PROVENCE,68560.97222222223
4,ALPES-MARITIMES,77041.0193679918
5,ARDECHE,68643.07870370371
6,ARDENNES,76731.35265700484
7,ARIEGE,68725.18518518518
8,AUBE,113366.17965367965
9,AUDE,35845.14555555555
10,AVEYRON,42631.944444444445
11,BAS-RHIN,78808.11462450594
12,BOUCHES-DU-RHONE,74656.1860670194
13,CALVADOS,47756.72760770974
14,CHARENTE-MARITIME,93268.22319159335
15,CORREZE,40705.88624338625
16,CORSE-DU-SUD,102221.08843537416
17,COTE-D'OR,47370.73260073259
18,COTES-D'ARMOR,46886.92929606626
19,DEUX-SEVRES,272846.03571428574
20,DORDOGNE,33485.01400560224
21,DOUBS,37968.723577235774
22,DROME,51251.51515151516
23,ESSONNE,69114.32064609884
24,EURE,44941.02863036088
25,FINISTERE,54289.63720124063
26,GARD,47821.733821733826
27,GIRONDE,108045.56898506526
28,HAUT-RHIN,57364.791666666664
29,HAUTE-CORSE,63861.86274509804
30,HAUTE-GARONNE,95805.53689755937
31,HAUTE-MARNE,26887.343358395985
32,HAUTE-SAONE,49057.22619047618
33,HAUTE-SAVOIE,80423.7032351872
34,HAUTE-VIENNE,38465.482142857145
35,HAUTES-ALPES,69121.94444444445
36,HAUTES-PYRENEES,28731.6156462585
37,HAUTS-DE-SEINE,158809.17416225752
38,HERAULT,80604.51524282168
39,ILLE-ET-VILAINE,80379.61255411255
40,INDRE-ET-LOIRE,62151.691297208534
41,ISERE,57195.68722943722
42,LANDES,65918.51800976801
43,LOIR-ET-CHER,39090.51032301033
44,LOIRE,32523.990476190476
45,LOIRE-ATLANTIQUE,169890.0
46,LOIRET,61855.93701298701
47,MAINE-ET-LOIRE,54778.09253246753
48,MANCHE,73064.13742690058
49,MARNE,49264.00971620972
50,MEURTHE-ET-MOSELLE,61123.37173579109
51,MORBIHAN,43089.88952288086
52,MOSELLE,50158.4126984127
53,NIEVRE,21796.41156462585
54,NORD,56688.41021455778
55,OISE,65558.27664399093
56,ORNE,29859.333333333336
57,PARIS,277128.49217963615
58,PAS-DE-CALAIS,49698.49253310792
59,PUY-DE-DOME,152109.30555555556
60,PYRENEES-ATLANTIQUES,82504.01306787084
61,PYRENEES-ORIENTALES,52852.84377610692
62,RHONE,152175.7985994398
63,SAONE-ET-LOIRE,38297.76785714286
64,SAVOIE,97647.18614718615
65,SEINE-ET-MARNE,69613.0493608653
66,SEINE-MARITIME,56808.17012385762
67,SEINE-SAINT-DENIS,87482.73751221003
68,SOMME,41461.851851851854
69,TARN,42665.11111111112
70,TARN-ET-GARONNE,44362.67253278124
71,TERRITOIRE DE BELFORT,35198.39035087719
72,VAL-D'OISE,70694.44962042788
73,VAL-DE-MARNE,114776.83633899975
74,VAR,90301.5779410648
75,VAUCLUSE,65114.36411149826
76,VENDEE,77373.69467601365
77,VIENNE,43871.41071428572
78,VOSGES,51372.724867724864
79,YONNE,31521.666666666664
80,YVELINES,81849.17196673191
