,departement,ville,prix/m**2
0,AIN,AMBERIEU EN BUGEY,3641.9966015004684
1,AIN,BELLEGARDE SUR VALSERINE,3087.911211877403
2,AIN,BOURG EN BRESSE,3641.9966015004684
3,AIN,OYONNAX,3641.9966015004684
4,AISNE,CHATEAU THIERRY,3641.9966015004684
5,AISNE,CHAUNY,2975.341036438806
6,AISNE,LAON,3087.911211877403
7,AISNE,SOISSONS,3087.911211877403
8,AISNE,ST QUENTIN,3087.911211877403
9,AISNE,TERGNIER,3641.9966015004684
10,AISNE,VILLERS COTTERETS,3641.9966015004684
11,ALLIER,CUSSET,2975.341036438806
12,ALLIER,MONTLUCON,3087.911211877403
13,ALLIER,MOULINS,2958.567084341876
14,ALLIER,VICHY,3087.911211877403
15,ALLIER,YZEURE,2975.341036438806
16,ALPES-DE-HAUTE-PROVENCE,DIGNE LES BAINS,3087.911211877403
17,ALPES-DE-HAUTE-PROVENCE,MANOSQUE,2958.567084341876
18,ALPES-MARITIMES,ANTIBES,3641.9966015004684
19,ALPES-MARITIMES,BEAUSOLEIL,3641.9966015004684
20,ALPES-MARITIMES,CAGNES SUR MER,3641.9966015004684
21,ALPES-MARITIMES,CANNES,3641.9966015004684
22,ALPES-MARITIMES,CARROS,3641.9966015004684
23,ALPES-MARITIMES,GRASSE,3087.911211877403
24,ALPES-MARITIMES,LA TRINITE,2975.341036438806
25,ALPES-MARITIMES,LE CANNET,3641.9966015004684
26,ALPES-MARITIMES,MANDELIEU LA NAPOULE,3087.911211877403
27,ALPES-MARITIMES,MENTON,3087.911211877403
28,ALPES-MARITIMES,MOUANS SARTOUX,3641.9966015004684
29,ALPES-MARITIMES,MOUGINS,3087.911211877403
30,ALPES-MARITIMES,NICE,3087.911211877403
31,ALPES-MARITIMES,ROQUEBRUNE CAP MARTIN,3641.9966015004684
32,ALPES-MARITIMES,ST LAURENT DU VAR,3641.9966015004684
33,ALPES-MARITIMES,VALBONNE,2975.341036438806
34,ALPES-MARITIMES,VALLAURIS,3087.911211877403
35,ALPES-MARITIMES,VENCE,3087.911211877403
36,ALPES-MARITIMES,VILLENEUVE LOUBET,3641.9966015004684
37,ARDECHE,ANNONAY,2975.341036438806
38,ARDECHE,AUBENAS,2958.567084341876
39,ARDECHE,GUILHERAND GRANGES,3087.911211877403
40,ARDECHE,TOURNON SUR RHONE,2975.341036438806
41,ARDENNES,CHARLEVILLE MEZIERES,3641.9966015004684
42,ARDENNES,SEDAN,3087.911211877403
43,ARIEGE,PAMIERS,2975.341036438806
44,AUBE,LA CHAPELLE ST LUC,1560.0
45,AUBE,ROMILLY SUR SEINE,1356.6666666666667
46,AUBE,ST ANDRE LES VERGERS,2389.2690642690645
47,AUBE,TROYES,1572.549454152531
48,AUDE,CARCASSONNE,1364.9833692426348
49,AUDE,LEZIGNAN CORBIERES,114.5
50,AUDE,NARBONNE,1116.6666666666667
51,AVEYRON,ONET LE CHATEAU,2626.865671641791
52,AVEYRON,RODEZ,1298.7349338263643
53,BAS-RHIN,BISCHHEIM,2951.6442179347164
54,BAS-RHIN,ERSTEIN,1437.7266081871346
55,BAS-RHIN,ILLKIRCH GRAFFENSTADEN,2429.786796860372
56,BAS-RHIN,OBERNAI,1989.5833333333333
57,BAS-RHIN,SAVERNE,1819.795821462488
58,BAS-RHIN,SCHILTIGHEIM,2287.6673263955395
59,BAS-RHIN,STRASBOURG,3555.310358909507
60,BOUCHES-DU-RHONE,AIX EN PROVENCE,3948.369963369963
61,BOUCHES-DU-RHONE,BERRE L ETANG,2947.0841487279845
62,BOUCHES-DU-RHONE,BOUC BEL AIR,4885.039852851012
63,BOUCHES-DU-RHONE,CHATEAUNEUF LES MARTIGUES,2891.891891891892
64,BOUCHES-DU-RHONE,CHATEAURENARD,1621.2603610509923
65,BOUCHES-DU-RHONE,FOS SUR MER,2819.0476190476193
66,BOUCHES-DU-RHONE,GARDANNE,3570.3226991937036
67,BOUCHES-DU-RHONE,LES PENNES MIRABEAU,2700.328947368421
68,BOUCHES-DU-RHONE,MARIGNANE,2958.0052724296843
69,BOUCHES-DU-RHONE,MARSEILLE 01,2787.694391146772
70,BOUCHES-DU-RHONE,MARSEILLE 02,3420.977823552052
71,BOUCHES-DU-RHONE,MARSEILLE 03,2583.392857142857
72,BOUCHES-DU-RHONE,MARSEILLE 04,2465.544871794872
73,BOUCHES-DU-RHONE,MARSEILLE 05,3091.975308641975
74,BOUCHES-DU-RHONE,MARSEILLE 06,3520.829133064516
75,BOUCHES-DU-RHONE,MARSEILLE 07,3802.6315789473683
76,BOUCHES-DU-RHONE,MARSEILLE 08,4613.2907657851665
77,BOUCHES-DU-RHONE,MARSEILLE 09,3506.3770195966194
78,BOUCHES-DU-RHONE,MARSEILLE 10,2695.2469568389965
79,BOUCHES-DU-RHONE,MARSEILLE 11,4112.903225806452
80,BOUCHES-DU-RHONE,MARSEILLE 12,3136.2548571181665
81,BOUCHES-DU-RHONE,MARSEILLE 14,1597.039791384972
82,BOUCHES-DU-RHONE,MARSEILLE 15,2164.444898793703
83,BOUCHES-DU-RHONE,MARTIGUES,3066.2500598137503
84,BOUCHES-DU-RHONE,MIRAMAS,2120.0
85,BOUCHES-DU-RHONE,PORT DE BOUC,1833.3333333333333
86,BOUCHES-DU-RHONE,ROGNAC,2779.77006431919
87,BOUCHES-DU-RHONE,SALON DE PROVENCE,2566.3839206521093
88,BOUCHES-DU-RHONE,TRETS,2793.4580486769837
89,BOUCHES-DU-RHONE,VITROLLES,3028.2667332605442
90,CALVADOS,BAYEUX,2800.0
91,CALVADOS,CAEN,2631.821692241285
92,CALVADOS,HEROUVILLE ST CLAIR,1840.0789689616606
93,CALVADOS,IFS,2436.4852609459185
94,CALVADOS,LISIEUX,1467.1588821252249
95,CHARENTE-MARITIME,LA ROCHELLE,4253.857567539842
96,CHARENTE-MARITIME,ROCHEFORT,2051.0747638754788
97,CHARENTE-MARITIME,ROYAN,4850.8523879256145
98,CHARENTE-MARITIME,SAINTES,1382.6329584186929
99,CORREZE,BRIVE LA GAILLARDE,1175.2819292947713
100,CORSE-DU-SUD,PORTO VECCHIO,3422.2397958895954
101,COTE-D'OR,BEAUNE,2618.75
102,COTE-D'OR,CHENOVE,993.7457598371777
103,COTE-D'OR,CHEVIGNY ST SAUVEUR,3868.4210526315787
104,COTE-D'OR,DIJON,2079.983506948824
105,COTE-D'OR,TALANT,2270.65
106,COTES-D'ARMOR,DINAN,2741.9445194731697
107,COTES-D'ARMOR,LANNION,1560.2505938636555
108,COTES-D'ARMOR,LOUDEAC,995.1327433628319
109,COTES-D'ARMOR,PLERIN,1668.6866494031574
110,COTES-D'ARMOR,PLOUFRAGAN,1645.3903510288176
111,COTES-D'ARMOR,ST BRIEUC,1180.4912208117394
112,DEUX-SEVRES,BRESSUIRE,928.6626182518818
113,DEUX-SEVRES,PARTHENAY,109.75586854460093
114,DORDOGNE,PERIGUEUX,1431.3943635011988
115,DOUBS,AUDINCOURT,1113.760753135753
116,DOUBS,BESANCON,1803.8267483474153
117,DOUBS,MONTBELIARD,1725.3790679903045
118,DROME,BOURG LES VALENCE,3116.9720347155253
119,DROME,VALENCE,1968.200674753617
120,ESSONNE,ARPAJON,2480.593744317149
121,ESSONNE,ATHIS MONS,3136.294478841856
122,ESSONNE,BRETIGNY SUR ORGE,3161.8973248539482
123,ESSONNE,BRUNOY,3255.009560018467
124,ESSONNE,CHILLY MAZARIN,2549.19038687901
125,ESSONNE,CORBEIL ESSONNES,2437.1331121438525
126,ESSONNE,COURCOURONNES,2975.341036438806
127,ESSONNE,DRAVEIL,3972.7323551067834
128,ESSONNE,EPINAY SOUS SENART,2754.7736423093043
129,ESSONNE,ETAMPES,2035.3738143803093
130,ESSONNE,EVRY,2649.474074074074
131,ESSONNE,GIF SUR YVETTE,3755.781499202552
132,ESSONNE,IGNY,4375.0
133,ESSONNE,JUVISY SUR ORGE,3740.430897604811
134,ESSONNE,LONGJUMEAU,3620.9150326797385
135,ESSONNE,MASSY,3787.3860984322746
136,ESSONNE,MENNECY,3390.1601830663612
137,ESSONNE,MONTGERON,4304.878048780488
138,ESSONNE,MORANGIS,2622.5
139,ESSONNE,MORSANG SUR ORGE,3329.377359688794
140,ESSONNE,ORSAY,3650.7936507936506
141,ESSONNE,PALAISEAU,4444.165367654749
142,ESSONNE,RIS ORANGIS,2337.717828746051
143,ESSONNE,SAVIGNY SUR ORGE,3557.637539866351
144,ESSONNE,ST MICHEL SUR ORGE,2453.6203259023887
145,ESSONNE,STE GENEVIEVE DES BOIS,3612.7998436110843
146,ESSONNE,VERRIERES LE BUISSON,4606.7842799770515
147,ESSONNE,VIGNEUX SUR SEINE,3249.1468253968255
148,ESSONNE,VIRY CHATILLON,3080.9805209138067
149,ESSONNE,YERRES,2717.227095516569
150,EURE,BERNAY,1670.37430519141
151,EURE,EVREUX,1692.1350401004702
152,EURE,GISORS,2011.418324075239
153,EURE,LOUVIERS,1846.0052034330681
154,EURE,VAL DE REUIL,2457.9320731707317
155,EURE,VERNON,2145.284592206781
156,FINISTERE,BREST,2007.5611335212345
157,FINISTERE,CONCARNEAU,2329.92628301591
158,FINISTERE,DOUARNENEZ,2009.3181818181818
159,FINISTERE,QUIMPER,1516.715254067894
160,FINISTERE,QUIMPERLE,1384.3085997075862
161,GARD,ALES,1237.0933220753386
162,GARD,VAUVERT,1352.9411764705883
163,GARD,VILLENEUVE LES AVIGNON,2688.401875901876
164,GIRONDE,AMBARES ET LAGRAVE,3037.0217634971045
165,GIRONDE,ANDERNOS LES BAINS,4380.0
166,GIRONDE,ARCACHON,6205.852918315588
167,GIRONDE,BEGLES,3684.195031500984
168,GIRONDE,BLANQUEFORT,2356.5207421175883
169,GIRONDE,BORDEAUX,4999.663294321033
170,GIRONDE,BRUGES,3034.669678147939
171,GIRONDE,CENON,1971.1538461538462
172,GIRONDE,CESTAS,3381.6843443030234
173,GIRONDE,EYSINES,3498.029134273522
174,GIRONDE,FLOIRAC,2635.135135135135
175,GIRONDE,GRADIGNAN,2967.853920046972
176,GIRONDE,GUJAN MESTRAS,3944.6747420812917
177,GIRONDE,LA TESTE DE BUCH,4890.679435091923
178,GIRONDE,LE BOUSCAT,4495.172214934122
179,GIRONDE,LIBOURNE,2174.489663443252
180,GIRONDE,LORMONT,2213.5004131743826
181,GIRONDE,MERIGNAC,3835.4913542069417
182,GIRONDE,PESSAC,3520.0942099054646
183,GIRONDE,TALENCE,4789.105381858414
184,GIRONDE,VILLENAVE D ORNON,3946.670103711622
185,HAUT-RHIN,COLMAR,2468.5101508402895
186,HAUTE-CORSE,BASTIA,2335.6815155774507
187,HAUTE-GARONNE,BALMA,3771.6162804083033
188,HAUTE-GARONNE,BLAGNAC,4177.06400090514
189,HAUTE-GARONNE,COLOMIERS,2879.1180555555557
190,HAUTE-GARONNE,CUGNAUX,2150.20325203252
191,HAUTE-GARONNE,L UNION,280.74684772065956
192,HAUTE-GARONNE,MURET,1684.1752662560357
193,HAUTE-GARONNE,PLAISANCE DU TOUCH,2498.6111111111113
194,HAUTE-GARONNE,RAMONVILLE ST AGNE,2679.6875
195,HAUTE-GARONNE,ST JEAN,3260.4721549636806
196,HAUTE-GARONNE,TOULOUSE,3955.0793541685375
197,HAUTE-GARONNE,TOURNEFEUILLE,3836.6094461973044
198,HAUTE-MARNE,CHAUMONT,1651.7170848278604
199,HAUTE-SAONE,VESOUL,1327.805661666231
200,HAUTE-SAVOIE,ANNECY,4841.780470449163
201,HAUTE-SAVOIE,ANNECY LE VIEUX,2975.341036438806
202,HAUTE-SAVOIE,CRAN GEVRIER,2975.341036438806
203,HAUTE-SAVOIE,RUMILLY,3123.8998549086464
204,HAUTE-SAVOIE,SEYNOD,3641.9966015004684
205,HAUTE-SAVOIE,THONON LES BAINS,4046.8645042558087
206,HAUTE-VIENNE,LIMOGES,1517.6525083895797
207,HAUTE-VIENNE,PANAZOL,2547.1337579617834
208,HAUTE-VIENNE,ST JUNIEN,1743.5840449175344
209,HAUTES-ALPES,BRIANCON,2975.341036438806
210,HAUTES-ALPES,GAP,3087.911211877403
211,HAUTES-PYRENEES,TARBES,1247.9357613992906
212,HAUTS-DE-SEINE,ANTONY,5462.3142916472425
213,HAUTS-DE-SEINE,ASNIERES SUR SEINE,8248.407643312103
214,HAUTS-DE-SEINE,BAGNEUX,3880.0904977375567
215,HAUTS-DE-SEINE,BOIS COLOMBES,6323.668032786885
216,HAUTS-DE-SEINE,BOULOGNE BILLANCOURT,9102.337941828617
217,HAUTS-DE-SEINE,BOURG LA REINE,6869.318181818182
218,HAUTS-DE-SEINE,CHATILLON,6426.539832970413
219,HAUTS-DE-SEINE,CLAMART,6609.218426728212
220,HAUTS-DE-SEINE,CLICHY,5633.508519732428
221,HAUTS-DE-SEINE,COLOMBES,3901.306929353102
222,HAUTS-DE-SEINE,COURBEVOIE,6298.5748819082155
223,HAUTS-DE-SEINE,FONTENAY AUX ROSES,4402.4390243902435
224,HAUTS-DE-SEINE,GARCHES,5202.437170927645
225,HAUTS-DE-SEINE,GENNEVILLIERS,4604.824561403509
226,HAUTS-DE-SEINE,ISSY LES MOULINEAUX,7579.902476552512
227,HAUTS-DE-SEINE,LA GARENNE COLOMBES,6160.496031746032
228,HAUTS-DE-SEINE,LEVALLOIS PERRET,9291.72647540548
229,HAUTS-DE-SEINE,MALAKOFF,5690.703329592218
230,HAUTS-DE-SEINE,MEUDON,6359.490852838311
231,HAUTS-DE-SEINE,MONTROUGE,3995.4963235294117
232,HAUTS-DE-SEINE,NANTERRE,6004.113046834686
233,HAUTS-DE-SEINE,NEUILLY SUR SEINE,9980.753424657534
234,HAUTS-DE-SEINE,PUTEAUX,6530.7692307692305
235,HAUTS-DE-SEINE,RUEIL MALMAISON,6886.238141442992
236,HAUTS-DE-SEINE,SEVRES,7760.805821076067
237,HAUTS-DE-SEINE,ST CLOUD,7863.023103748911
238,HAUTS-DE-SEINE,SURESNES,7301.587301587301
239,HAUTS-DE-SEINE,VANVES,9301.948491708752
240,HAUTS-DE-SEINE,VILLE D AVRAY,6363.636363636364
241,HAUTS-DE-SEINE,VILLENEUVE LA GARENNE,3376.9362925502
242,HERAULT,BEZIERS,884.2105263157895
243,HERAULT,CASTELNAU LE LEZ,3286.727557067119
244,HERAULT,FRONTIGNAN,3177.3848910945685
245,HERAULT,LATTES,4163.981470865763
246,HERAULT,MONTPELLIER,3231.505082656065
247,ILLE-ET-VILAINE,DINARD,2647.369402985075
248,ILLE-ET-VILAINE,FOUGERES,1705.0080573966475
249,ILLE-ET-VILAINE,RENNES,3922.2942294029176
250,ILLE-ET-VILAINE,ST MALO,3039.6131072470607
251,ILLE-ET-VILAINE,VITRE,427.05882352941177
252,INDRE-ET-LOIRE,AMBOISE,1590.0
253,INDRE-ET-LOIRE,CHAMBRAY LES TOURS,2616.8333333333335
254,INDRE-ET-LOIRE,JOUE LES TOURS,645.1968024007423
255,INDRE-ET-LOIRE,LA RICHE,2455.9451219512193
256,INDRE-ET-LOIRE,ST CYR SUR LOIRE,2279.928802588997
257,INDRE-ET-LOIRE,ST PIERRE DES CORPS,1576.468797564688
258,INDRE-ET-LOIRE,TOURS,2696.7449074659894
259,ISERE,BOURGOIN JALLIEU,1781.672672405889
260,ISERE,ECHIROLLES,1090.909090909091
261,ISERE,GRENOBLE,2632.308632569571
262,ISERE,L ISLE D ABEAU,2958.6524286811486
263,ISERE,VOIRON,1782.608695652174
264,LANDES,BISCARROSSE,3104.9064786754716
265,LANDES,DAX,2393.7381532569843
266,LANDES,ST PAUL LES DAX,1766.312616614588
267,LOIR-ET-CHER,BLOIS,1676.6116831257286
268,LOIRE,FIRMINY,1302.1739130434783
269,LOIRE,LE CHAMBON FEUGEROLLES,446.0743639921722
270,LOIRE,MONTBRISON,2076.2956119344713
271,LOIRE,RIORGES,102.08333333333333
272,LOIRE,ROANNE,1013.9610844424236
273,LOIRE,ST CHAMOND,2511.764705882353
274,LOIRE,ST ETIENNE,1532.354431321503
275,LOIRE,ST JUST ST RAMBERT,1170.9134341212282
276,LOIRE-ATLANTIQUE,LA BAULE ESCOUBLAC,8761.557026996396
277,LOIRE-ATLANTIQUE,NANTES,4299.363057324841
278,LOIRE-ATLANTIQUE,PORNIC,3342.63278505532
279,LOIRE-ATLANTIQUE,PORNICHET,1940.8369408369408
280,LOIRE-ATLANTIQUE,ST NAZAIRE,2930.9523809523807
281,LOIRET,FLEURY LES AUBRAIS,1198.1772151898733
282,LOIRET,OLIVET,2971.415864801488
283,LOIRET,ORLEANS,2808.0697666135507
284,MAINE-ET-LOIRE,ANGERS,2925.210247969254
285,MAINE-ET-LOIRE,AVRILLE,2964.902274342573
286,MAINE-ET-LOIRE,CHOLET,1694.4891632024387
287,MAINE-ET-LOIRE,TRELAZE,2693.548387096774
288,MANCHE,CHERBOURG OCTEVILLE,1964.3262681136034
289,MANCHE,EQUEURDREVILLE HAINNEVILLE,2975.341036438806
290,MANCHE,TOURLAVILLE,3641.9966015004684
291,MARNE,CHALONS EN CHAMPAGNE,1380.1344322610646
292,MARNE,EPERNAY,1595.6213721438776
293,MARNE,REIMS,2403.9590505610227
294,MARNE,TINQUEUX,2484.806087383407
295,MARNE,VITRY LE FRANCOIS,1063.3776434369468
296,MEURTHE-ET-MOSELLE,LAXOU,1818.6327561327562
297,MEURTHE-ET-MOSELLE,LONGWY,100.1124859392576
298,MEURTHE-ET-MOSELLE,NANCY,2551.178003908692
299,MEURTHE-ET-MOSELLE,VANDOEUVRE LES NANCY,1387.8296592671281
300,MEURTHE-ET-MOSELLE,VILLERS LES NANCY,975.0
301,MORBIHAN,GUIDEL,1724.2380952380954
302,MORBIHAN,HENNEBONT,2047.9571246149778
303,MORBIHAN,LANESTER,2120.9633017544006
304,MORBIHAN,LORIENT,1895.0996197640923
305,MORBIHAN,PONTIVY,1243.1082015658662
306,MORBIHAN,VANNES,2848.4523809523807
307,MOSELLE,AMNEVILLE,1978.3276138183483
308,MOSELLE,CREUTZWALD,933.4317518387751
309,MOSELLE,FAMECK,1654.4827586206898
310,MOSELLE,HAYANGE,759.1623036649214
311,MOSELLE,METZ,3404.0592190235916
312,MOSELLE,MONTIGNY LES METZ,1896.551724137931
313,MOSELLE,SARREBOURG,1321.2360526797147
314,MOSELLE,ST AVOLD,1305.1943392138032
315,MOSELLE,THIONVILLE,1764.6172927002126
316,MOSELLE,WOIPPY,2530.3816466552316
317,NIEVRE,NEVERS,968.107179650811
318,NORD,ARMENTIERES,2422.146114272155
319,NORD,BAILLEUL,2950.4047650483403
320,NORD,BRUAY SUR L ESCAUT,1092.0559452878686
321,NORD,CAUDRY,2540.0
322,NORD,CROIX,1772.1637041913539
323,NORD,DENAIN,1343.2835820895523
324,NORD,DOUAI,1263.5233201700464
325,NORD,FACHES THUMESNIL,1897.802197802198
326,NORD,HALLUIN,1035.0
327,NORD,HAZEBROUCK,1462.734967731153
328,NORD,LA MADELEINE,2711.5384615384614
329,NORD,LAMBERSART,2960.040431266846
330,NORD,LILLE,3008.3174218857284
331,NORD,LOOS,2474.242424242424
332,NORD,MARCQ EN BAROEUL,1789.4736842105262
333,NORD,MARLY,1767.3611111111113
334,NORD,MONS EN BAROEUL,3102.2727272727275
335,NORD,RONCHIN,2207.9202906169826
336,NORD,ROUBAIX,1637.401378815905
337,NORD,SECLIN,2040.1128504027142
338,NORD,SIN LE NOBLE,1369.8279405912285
339,NORD,ST SAULVE,1587.5850340136055
340,NORD,TOURCOING,2107.909209834088
341,NORD,VILLENEUVE D ASCQ,1647.6190476190477
342,NORD,WATTIGNIES,2161.1902514444887
343,NORD,WATTRELOS,1207.6189326249698
344,OISE,CHANTILLY,4339.228025306233
345,OISE,CLERMONT,1620.0
346,OISE,COMPIEGNE,2699.584723761503
347,OISE,CREIL,2116.014070338304
348,OISE,CREPY EN VALOIS,2253.5543957308787
349,OISE,MONTATAIRE,1585.1703717645746
350,OISE,NOGENT SUR OISE,1690.8866343126947
351,ORNE,ALENCON,1255.4111224801331
352,PARIS,PARIS 01,13846.153846153846
353,PARIS,PARIS 02,13499.81785063752
354,PARIS,PARIS 03,3240.1147959183672
355,PARIS,PARIS 06,19825.721153846156
356,PARIS,PARIS 07,17288.108371732043
357,PARIS,PARIS 09,8153.106060606061
358,PARIS,PARIS 10,7834.268145174499
359,PARIS,PARIS 11,10391.758175836458
360,PARIS,PARIS 12,9871.081094472753
361,PARIS,PARIS 13,10815.041969539632
362,PARIS,PARIS 14,13259.06108477152
363,PARIS,PARIS 15,11644.403305914513
364,PARIS,PARIS 16,13415.84247485751
365,PARIS,PARIS 17,8873.529885566388
366,PARIS,PARIS 18,9173.146781809479
367,PARIS,PARIS 19,7286.339791725184
368,PARIS,PARIS 20,6778.231381339274
369,PAS-DE-CALAIS,ARRAS,2244.9778924925577
370,PAS-DE-CALAIS,BRUAY LA BUISSIERE,1108.888888888889
371,PAS-DE-CALAIS,CARVIN,1522.2906403940888
372,PAS-DE-CALAIS,LENS,1500.0
373,PUY-DE-DOME,BEAUMONT,1438.235294117647
374,PUY-DE-DOME,CHAMALIERES,2514.9253731343283
375,PUY-DE-DOME,CLERMONT FERRAND,2256.005525088905
376,PUY-DE-DOME,COURNON D AUVERGNE,1769.55110107284
377,PUY-DE-DOME,ISSOIRE,1409.0
378,PUY-DE-DOME,PONT DU CHATEAU,2286.8217054263564
379,PUY-DE-DOME,RIOM,1225.475437804205
380,PYRENEES-ATLANTIQUES,ANGLET,4631.27553441548
381,PYRENEES-ATLANTIQUES,BAYONNE,3555.4482489513216
382,PYRENEES-ATLANTIQUES,BIARRITZ,6591.068229249328
383,PYRENEES-ATLANTIQUES,BILLERE,1436.3636363636363
384,PYRENEES-ATLANTIQUES,HENDAYE,3889.5258290713323
385,PYRENEES-ATLANTIQUES,ORTHEZ,1187.2251141828938
386,PYRENEES-ATLANTIQUES,PAU,1898.5625611683931
387,PYRENEES-ATLANTIQUES,ST JEAN DE LUZ,7166.765800917076
388,PYRENEES-ORIENTALES,ARGELES SUR MER,3596.36615653298
389,PYRENEES-ORIENTALES,CANET EN ROUSSILLON,3177.9163002730597
390,PYRENEES-ORIENTALES,PERPIGNAN,1606.0944025638091
391,PYRENEES-ORIENTALES,ST CYPRIEN,3240.1119577716345
392,PYRENEES-ORIENTALES,ST ESTEVE,2272.623561942025
393,RHONE,BRIGNAIS,3615.3846153846152
394,RHONE,BRON,4399.7404572192845
395,RHONE,CALUIRE ET CUIRE,4979.576174239375
396,RHONE,ECULLY,4011.2265512265512
397,RHONE,FRANCHEVILLE,3729.885057471264
398,RHONE,GENAS,600.0
399,RHONE,GIVORS,2455.7405084837014
400,RHONE,LYON 02,7526.634768740032
401,RHONE,LYON 03,5461.037074199447
402,RHONE,LYON 04,5286.468848567913
403,RHONE,LYON 05,4339.622641509434
404,RHONE,LYON 06,6328.991130820399
405,RHONE,LYON 07,3812.069997071693
406,RHONE,LYON 08,6871.587960560457
407,RHONE,LYON 09,4409.808612440191
408,RHONE,MEYZIEU,2240.0862068965516
409,RHONE,OULLINS,4110.280373831775
410,RHONE,RILLIEUX LA PAPE,2294.269215011018
411,RHONE,ST GENIS LAVAL,2323.5365697702528
412,RHONE,ST PRIEST,2245.0
413,RHONE,STE FOY LES LYON,3980.0
414,RHONE,TASSIN LA DEMI LUNE,3446.2657999277712
415,RHONE,VAULX EN VELIN,1888.332806240776
416,RHONE,VENISSIEUX,2875.0
417,RHONE,VILLEFRANCHE SUR SAONE,3007.4168066200186
418,RHONE,VILLEURBANNE,4338.348380454581
419,SAONE-ET-LOIRE,MACON,1670.1406786556659
420,SAVOIE,AIX LES BAINS,4571.076675046471
421,SAVOIE,ALBERTVILLE,2500.0
422,SAVOIE,CHAMBERY,2454.079696394687
423,SEINE-ET-MARNE,BRIE COMTE ROBERT,4557.028351068246
424,SEINE-ET-MARNE,CHAMPS SUR MARNE,2727.2995283018868
425,SEINE-ET-MARNE,CHELLES,4265.012106537531
426,SEINE-ET-MARNE,COMBS LA VILLE,1736.3167564903877
427,SEINE-ET-MARNE,COULOMMIERS,2396.0231982987925
428,SEINE-ET-MARNE,DAMMARIE LES LYS,3104.017701321366
429,SEINE-ET-MARNE,LE MEE SUR SEINE,2032.3161629633746
430,SEINE-ET-MARNE,LIEUSAINT,2891.894264529633
431,SEINE-ET-MARNE,MELUN,3190.458709647534
432,SEINE-ET-MARNE,MOISSY CRAMAYEL,2928.9251143249553
433,SEINE-ET-MARNE,MONTEREAU FAULT YONNE,3250.0
434,SEINE-ET-MARNE,OZOIR LA FERRIERE,3667.797846783435
435,SEINE-ET-MARNE,PONTAULT COMBAULT,3637.224910646537
436,SEINE-ET-MARNE,ROISSY EN BRIE,3160.362831281241
437,SEINE-ET-MARNE,SAVIGNY LE TEMPLE,2823.529411764706
438,SEINE-MARITIME,BOIS GUILLAUME BIHOREL,2685.0027125572474
439,SEINE-MARITIME,BOLBEC,1084.493006993007
440,SEINE-MARITIME,CANTELEU,1489.3617021276596
441,SEINE-MARITIME,ELBEUF,1257.222674654075
442,SEINE-MARITIME,FECAMP,1499.1946238902228
443,SEINE-MARITIME,LE GRAND QUEVILLY,2316.6280864197533
444,SEINE-MARITIME,LE HAVRE,1382.9642115781003
445,SEINE-MARITIME,LE PETIT QUEVILLY,2253.218235005918
446,SEINE-MARITIME,MONT ST AIGNAN,2161.5505926774736
447,SEINE-MARITIME,MONTIVILLIERS,2854.3128076375165
448,SEINE-MARITIME,OISSEL,2092.703032820939
449,SEINE-MARITIME,ROUEN,2397.171132146133
450,SEINE-MARITIME,SOTTEVILLE LES ROUEN,1970.94182235536
451,SEINE-MARITIME,ST ETIENNE DU ROUVRAY,1821.5847537852262
452,SEINE-SAINT-DENIS,AUBERVILLIERS,3393.5672197193126
453,SEINE-SAINT-DENIS,AULNAY SOUS BOIS,3491.830604761948
454,SEINE-SAINT-DENIS,BAGNOLET,4336.031731850547
455,SEINE-SAINT-DENIS,BOBIGNY,1972.7272727272727
456,SEINE-SAINT-DENIS,BONDY,3254.5483119740547
457,SEINE-SAINT-DENIS,CLICHY SOUS BOIS,3081.2031119755484
458,SEINE-SAINT-DENIS,DRANCY,3697.389920880633
459,SEINE-SAINT-DENIS,GAGNY,3379.222165720169
460,SEINE-SAINT-DENIS,LA COURNEUVE,3500.0
461,SEINE-SAINT-DENIS,LE PRE ST GERVAIS,6395.3488372093025
462,SEINE-SAINT-DENIS,LE RAINCY,4425.049726706977
463,SEINE-SAINT-DENIS,LES LILAS,6198.623423363657
464,SEINE-SAINT-DENIS,LES PAVILLONS SOUS BOIS,3281.3657444394157
465,SEINE-SAINT-DENIS,LIVRY GARGAN,2866.8854842991614
466,SEINE-SAINT-DENIS,MONTREUIL,4029.036004645761
467,SEINE-SAINT-DENIS,NEUILLY PLAISANCE,4314.5675216886975
468,SEINE-SAINT-DENIS,NEUILLY SUR MARNE,2884.0714319887725
469,SEINE-SAINT-DENIS,NOISY LE GRAND,4102.133499046378
470,SEINE-SAINT-DENIS,NOISY LE SEC,3360.3715367253317
471,SEINE-SAINT-DENIS,PANTIN,4002.2389890810946
472,SEINE-SAINT-DENIS,ROMAINVILLE,4765.276747328709
473,SEINE-SAINT-DENIS,ROSNY SOUS BOIS,2543.7294437530427
474,SEINE-SAINT-DENIS,SEVRAN,2822.3116116373453
475,SEINE-SAINT-DENIS,ST DENIS,4507.735655737705
476,SEINE-SAINT-DENIS,ST OUEN,6137.604851834456
477,SEINE-SAINT-DENIS,STAINS,3170.940170940171
478,SEINE-SAINT-DENIS,TREMBLAY EN FRANCE,3243.6624964095995
479,SEINE-SAINT-DENIS,VILLEMOMBLE,3500.3167522491844
480,SEINE-SAINT-DENIS,VILLEPINTE,3442.3076923076924
481,SOMME,AMIENS,1898.1574064907395
482,TARN,ALBI,1820.8023499097144
483,TARN,CARMAUX,1216.1290322580646
484,TARN,GAILLAC,1419.4009520423463
485,TARN,GRAULHET,1689.0426594378655
486,TARN-ET-GARONNE,CASTELSARRASIN,1273.2188708141534
487,TARN-ET-GARONNE,MOISSAC,849.4050689766763
488,TARN-ET-GARONNE,MONTAUBAN,1508.0206635042534
489,TERRITOIRE DE BELFORT,BELFORT,1346.499671638044
490,VAL-D'OISE,ARGENTEUIL,3124.420458715228
491,VAL-D'OISE,ARNOUVILLE,2153.2258064516127
492,VAL-D'OISE,BEZONS,3610.4589044238624
493,VAL-D'OISE,CERGY,3755.605010801873
494,VAL-D'OISE,DEUIL LA BARRE,2648.7251461988303
495,VAL-D'OISE,ERAGNY,3587.6041666666665
496,VAL-D'OISE,ERMONT,3895.8575395361586
497,VAL-D'OISE,FRANCONVILLE,3506.200441216389
498,VAL-D'OISE,GONESSE,2590.656565656566
499,VAL-D'OISE,GOUSSAINVILLE,2890.9144598552984
500,VAL-D'OISE,HERBLAY,3612.096954107206
501,VAL-D'OISE,JOUY LE MOUTIER,3921.4285714285716
502,VAL-D'OISE,L ISLE ADAM,5056.640148635723
503,VAL-D'OISE,MONTIGNY LES CORMEILLES,2229.6221322537112
504,VAL-D'OISE,MONTMORENCY,3680.9523809523807
505,VAL-D'OISE,PONTOISE,3546.4580084209356
506,VAL-D'OISE,SANNOIS,4403.439153439154
507,VAL-D'OISE,SARCELLES,2536.7704144652885
508,VAL-D'OISE,ST GRATIEN,4279.229383082467
509,VAL-D'OISE,TAVERNY,2605.868794795889
510,VAL-D'OISE,VILLIERS LE BEL,2633.3333333333335
511,VAL-DE-MARNE,ALFORTVILLE,5216.301966848384
512,VAL-DE-MARNE,ARCUEIL,5134.615384615385
513,VAL-DE-MARNE,BOISSY ST LEGER,3749.0086765653205
514,VAL-DE-MARNE,BONNEUIL SUR MARNE,3885.4303708470375
515,VAL-DE-MARNE,BRY SUR MARNE,6480.072663723326
516,VAL-DE-MARNE,CACHAN,5647.677671660841
517,VAL-DE-MARNE,CHAMPIGNY SUR MARNE,3433.1576943434006
518,VAL-DE-MARNE,CHARENTON LE PONT,9700.0
519,VAL-DE-MARNE,CHEVILLY LARUE,2996.3589909530942
520,VAL-DE-MARNE,CHOISY LE ROI,3948.992817715515
521,VAL-DE-MARNE,CRETEIL,4150.513480137147
522,VAL-DE-MARNE,FRESNES,3736.396814863968
523,VAL-DE-MARNE,IVRY SUR SEINE,5363.71644889613
524,VAL-DE-MARNE,JOINVILLE LE PONT,2812.9614944047935
525,VAL-DE-MARNE,L HAY LES ROSES,4702.398857329923
526,VAL-DE-MARNE,LA QUEUE EN BRIE,1823.9054688683534
527,VAL-DE-MARNE,LE KREMLIN BICETRE,5042.767295597484
528,VAL-DE-MARNE,LE PERREUX SUR MARNE,6299.333920796184
529,VAL-DE-MARNE,LE PLESSIS TREVISE,3099.7221072249154
530,VAL-DE-MARNE,LIMEIL BREVANNES,3461.324217347467
531,VAL-DE-MARNE,MAISONS ALFORT,4685.0457516339875
532,VAL-DE-MARNE,NOGENT SUR MARNE,6128.250544327743
533,VAL-DE-MARNE,ORLY,4012.492975246525
534,VAL-DE-MARNE,ST MANDE,10116.565398145187
535,VAL-DE-MARNE,ST MAUR DES FOSSES,6513.404646413034
536,VAL-DE-MARNE,ST MAURICE,5685.813004689152
537,VAL-DE-MARNE,SUCY EN BRIE,3445.2973718706194
538,VAL-DE-MARNE,THIAIS,2743.9024390243903
539,VAL-DE-MARNE,VALENTON,3712.7443744773586
540,VAL-DE-MARNE,VILLEJUIF,5871.428571428572
541,VAL-DE-MARNE,VILLENEUVE LE ROI,3611.447622953771
542,VAL-DE-MARNE,VILLENEUVE ST GEORGES,2938.8888888888887
543,VAL-DE-MARNE,VILLIERS SUR MARNE,3571.108891108891
544,VAL-DE-MARNE,VITRY SUR SEINE,4607.776681395391
545,VAR,BRIGNOLES,1546.6490617039765
546,VAR,COGOLIN,4305.78444353566
547,VAR,DRAGUIGNAN,2856.433826702422
548,VAR,FREJUS,3949.0499780037976
549,VAR,HYERES,3517.9128459334293
550,VAR,LA CRAU,4195.710506424793
551,VAR,LA GARDE,3107.508506586058
552,VAR,LA SEYNE SUR MER,3662.0706678326637
553,VAR,LA VALETTE DU VAR,3352.8048666196646
554,VAR,LE PRADET,3189.835952577888
555,VAR,OLLIOULES,148.58490566037736
556,VAR,ROQUEBRUNE SUR ARGENS,4273.901753894206
557,VAR,SANARY SUR MER,6441.666666666666
558,VAR,SIX FOURS LES PLAGES,2161.6550116550115
559,VAR,SOLLIES PONT,2211.1111111111113
560,VAR,ST MAXIMIN LA STE BAUME,2181.675169882589
561,VAR,ST RAPHAEL,4777.637344297875
562,VAR,STE MAXIME,5000.0
563,VAR,TOULON,2155.2813458756023
564,VAUCLUSE,AVIGNON,2463.443903181088
565,VAUCLUSE,CARPENTRAS,1658.095238095238
566,VAUCLUSE,CAVAILLON,935.0597014925373
567,VAUCLUSE,L ISLE SUR LA SORGUE,2566.7314858858276
568,VAUCLUSE,LE PONTET,1919.0007469704897
569,VAUCLUSE,MONTEUX,1969.1358024691358
570,VAUCLUSE,ORANGE,2043.691775522011
571,VAUCLUSE,SORGUES,2032.7312336882362
572,VAUCLUSE,VEDENE,2478.158226646085
573,VENDEE,CHATEAU D OLONNE,3087.911211877403
574,VENDEE,LA ROCHE SUR YON,1664.9754238459361
575,VENDEE,LES SABLES D OLONNE,3703.3356682055505
576,VENDEE,OLONNE SUR MER,3641.9966015004684
577,VENDEE,ST HILAIRE DE RIEZ,2112.1198156682026
578,VIENNE,BUXEROLLES,1723.5812356979404
579,VIENNE,POITIERS,1687.7912973087762
580,VOSGES,EPINAL,1665.2113783510633
581,YONNE,AUXERRE,1123.3630924957429
582,YONNE,JOIGNY,1246.4285714285713
583,YVELINES,ACHERES,1768.4563758389263
584,YVELINES,ANDRESY,2530.319344138983
585,YVELINES,AUBERGENVILLE,2813.1006989951943
586,YVELINES,BOIS D ARCY,3765.6526307430913
587,YVELINES,CARRIERES SUR SEINE,4913.793103448276
588,YVELINES,CHATOU,7417.815009418063
589,YVELINES,CONFLANS STE HONORINE,3239.772596785713
590,YVELINES,ELANCOURT,3611.1111111111113
591,YVELINES,FONTENAY LE FLEURY,5163.793103448276
592,YVELINES,GUYANCOURT,4914.7058823529405
593,YVELINES,HOUILLES,5433.5109196823805
594,YVELINES,LE CHESNAY,5055.886514178159
595,YVELINES,LE PECQ,6435.153533393866
596,YVELINES,LE VESINET,5370.37037037037
597,YVELINES,LES CLAYES SOUS BOIS,2924.964438122333
598,YVELINES,LES MUREAUX,1828.2767084815994
599,YVELINES,LIMAY,1524.844610824512
600,YVELINES,MANTES LA JOLIE,2416.740334334118
601,YVELINES,MANTES LA VILLE,2435.08058664118
602,YVELINES,MAUREPAS,2769.802549921397
603,YVELINES,MONTESSON,5556.25
604,YVELINES,MONTIGNY LE BRETONNEUX,4311.613819946583
605,YVELINES,PLAISIR,2831.856363099396
606,YVELINES,POISSY,4326.732673267326
607,YVELINES,RAMBOUILLET,3753.32654260305
608,YVELINES,SARTROUVILLE,3562.3041051244713
609,YVELINES,ST CYR L ECOLE,3976.899018402529
610,YVELINES,TRIEL SUR SEINE,425.05854800936766
611,YVELINES,VELIZY VILLACOUBLAY,6835.957157359571
612,YVELINES,VERSAILLES,7432.020633204354
