,region,prix/taille
0,ALSACE,316.866832530765
1,AQUITAINE,285.4126031565451
2,AUVERGNE,494.16634050880583
3,BASSE-NORMANDIE,223.10457227138644
4,BOURGOGNE,231.82899371069178
5,BRETAGNE,276.0268621456364
6,CENTRE,265.86767203315
7,CHAMPAGNE-ARDENNE,317.9113095238095
8,CORSE,489.23250360750365
9,FRANCHE-COMTE,220.8550644567219
10,HAUTE-NORMANDIE,317.02791783380025
11,ILE-DE-FRANCE,470.0125484913169
12,LANGUEDOC-ROUSSILLON,306.48383518225046
13,LIMOUSIN,318.73268398268397
14,LORRAINE,272.18097343062965
15,MIDI-PYRENEES,261.57223639455793
16,NORD-PAS-DE-CALAIS,297.1758184523811
17,PAYS DE LA LOIRE,290.479171001734
18,PICARDIE,479.51410494783636
19,POITOU-CHARENTES,218.34581078643586
20,PROVENCE-ALPES-COTE D'AZUR,440.9618369941882
21,RHONE-ALPES,353.90460233697644
