,region,prix/m**2
0,ALSACE,13.794122804264054
1,AQUITAINE,12.36157458223555
2,AUVERGNE,22.295027487820402
3,BASSE-NORMANDIE,10.476878983494096
4,BOURGOGNE,9.552346556822016
5,BRETAGNE,12.690880418599406
6,CENTRE,11.762381253169382
7,CHAMPAGNE-ARDENNE,13.97709414383962
8,CORSE,21.641324054271806
9,FRANCHE-COMTE,8.993102387475417
10,HAUTE-NORMANDIE,14.462626859301576
11,ILE-DE-FRANCE,21.46292435933173
12,LANGUEDOC-ROUSSILLON,13.821171069032564
13,LIMOUSIN,14.513824062513683
14,LORRAINE,12.23903678489125
15,MIDI-PYRENEES,11.62729022986825
16,NORD-PAS-DE-CALAIS,13.181675304828394
17,PAYS DE LA LOIRE,13.050087796012019
18,PICARDIE,22.389039460265305
19,POITOU-CHARENTES,9.834502846423351
20,PROVENCE-ALPES-COTE D'AZUR,20.040010810806788
21,RHONE-ALPES,15.460741154926295
