,region,prix/taille
0,ALSACE,61833.333333333336
1,AQUITAINE,80875.0
2,AUVERGNE,49833.333333333336
3,BASSE-NORMANDIE,44730.0
4,BOURGOGNE,35612.5
5,BRETAGNE,41725.0
6,CENTRE,48180.0
7,CHAMPAGNE-ARDENNE,41000.0
8,CORSE,70000.0
9,FRANCHE-COMTE,36534.375
10,HAUTE-NORMANDIE,41000.0
11,ILE-DE-FRANCE,80000.0
12,LANGUEDOC-ROUSSILLON,52250.0
13,LIMOUSIN,37400.0
14,LORRAINE,46000.0
15,MIDI-PYRENEES,49850.0
16,NORD-PAS-DE-CALAIS,49650.0
17,PAYS DE LA LOIRE,62250.0
18,PICARDIE,49250.0
19,POITOU-CHARENTES,66000.0
20,PROVENCE-ALPES-COTE D'AZUR,59000.0
21,RHONE-ALPES,57000.0
